﻿13/09/2023 10:32;;-0,000152018;-0,304036
13/09/2023 10:34;;-0,000157638;-0,315276
13/09/2023 10:35;;-0,000159359;-0,318718
13/09/2023 10:36;;-0,000151402;-0,302804
13/09/2023 10:37;;-0,000153126;-0,306252
13/09/2023 10:38;;-0,000151906;-0,303812
13/09/2023 10:39;;-0,000160779;-0,321558
13/09/2023 10:40;;-0,000171726;-0,343452
13/09/2023 10:41;;-0,000177206;-0,354412
13/09/2023 10:42;;-0,000161875;-0,323750
13/09/2023 10:43;;-0,000167348;-0,334696
13/09/2023 10:44;;-0,000162414;-0,324828
13/09/2023 10:45;;-0,000188334;-0,376668
13/09/2023 10:46;;-0,000194785;-0,389570
13/09/2023 10:47;;-0,000181962;-0,363924
13/09/2023 10:48;;-0,000181213;-0,362426
13/09/2023 10:49;;-0,000179678;-0,359356
13/09/2023 10:50;;-0,00020276;-0,405520
13/09/2023 10:51;;-0,000204722;-0,409444
13/09/2023 10:52;;-0,000198385;-0,396770
13/09/2023 10:53;;-0,000210332;-0,420664
13/09/2023 10:54;;-0,00019932;-0,398640
13/09/2023 10:55;;-0,000202187;-0,404374
13/09/2023 10:56;;-0,000183453;-0,366906
13/09/2023 10:57;;-0,000194754;-0,389508
13/09/2023 10:58;;-0,000192951;-0,385902
13/09/2023 10:59;;-0,000193729;-0,387458
13/09/2023 11:00;;-0,000188875;-0,377750
13/09/2023 11:01;;-0,000177408;-0,354816
13/09/2023 11:02;;-0,000180153;-0,360306
13/09/2023 11:03;;-0,000178022;-0,356044
13/09/2023 11:04;;-0,000185948;-0,371896
13/09/2023 11:05;;-0,000197055;-0,394110
13/09/2023 11:06;;-0,000198307;-0,396614
13/09/2023 11:07;;-0,000202497;-0,404994
13/09/2023 11:08;;-0,000199126;-0,398252
13/09/2023 11:09;;-0,000197996;-0,395992
13/09/2023 11:10;;-0,000203781;-0,407562
13/09/2023 11:11;;-0,00019092;-0,381840
13/09/2023 11:12;;-0,000188319;-0,376638
13/09/2023 11:13;;-0,000174443;-0,348886
13/09/2023 11:14;;-0,000180067;-0,360134
13/09/2023 11:15;;-0,000187577;-0,375154
13/09/2023 11:16;;-0,000206777;-0,413554
13/09/2023 11:17;;-0,000199156;-0,398312
13/09/2023 11:18;;-0,000201001;-0,402002
13/09/2023 11:19;;-0,000192201;-0,384402
13/09/2023 11:20;;-0,000202289;-0,404578
13/09/2023 11:21;;-0,000185666;-0,371332
13/09/2023 11:22;;-0,000176307;-0,352614
13/09/2023 11:23;;-0,000175656;-0,351312
13/09/2023 11:24;;-0,000195194;-0,390388
13/09/2023 11:25;;-0,000199492;-0,398984
13/09/2023 11:26;;-0,000200534;-0,401068
13/09/2023 11:27;;-0,000186617;-0,373234
13/09/2023 11:28;;-0,00019928;-0,398560
13/09/2023 11:29;;-0,000199986;-0,399972
13/09/2023 11:30;;-0,000214073;-0,428146
13/09/2023 11:31;;-0,000210018;-0,420036
13/09/2023 11:32;;-0,000213661;-0,427322
13/09/2023 11:33;;-0,000214585;-0,429170
13/09/2023 11:34;;-0,000216396;-0,432792
13/09/2023 11:35;;-0,000206075;-0,412150
13/09/2023 11:36;;-0,00020986;-0,419720
13/09/2023 11:37;;-0,000219843;-0,439686
13/09/2023 11:38;;-0,000217246;-0,434492
13/09/2023 11:39;;-0,000218722;-0,437444
13/09/2023 11:40;;-0,000207744;-0,415488
13/09/2023 11:41;;-0,000199201;-0,398402
13/09/2023 11:42;;-0,000194531;-0,389062
13/09/2023 11:43;;-0,00019958;-0,399160
13/09/2023 11:44;;-0,000205756;-0,411512
13/09/2023 11:45;;-0,000201579;-0,403158
13/09/2023 11:46;;-0,000200191;-0,400382
13/09/2023 11:47;;-0,000180999;-0,361998
13/09/2023 11:48;;-0,000191025;-0,382050
13/09/2023 11:49;;-0,000201145;-0,402290
13/09/2023 11:50;;-0,000182798;-0,365596
13/09/2023 11:51;;-0,00018744;-0,374880
13/09/2023 11:52;;-0,000196557;-0,393114
13/09/2023 11:53;;-0,000196784;-0,393568
13/09/2023 11:54;;-0,000199685;-0,399370
13/09/2023 11:55;;-0,000194587;-0,389174
13/09/2023 11:56;;-0,000187943;-0,375886
13/09/2023 11:57;;-0,000192612;-0,385224
13/09/2023 11:58;;-0,00018802;-0,376040
13/09/2023 11:59;;-0,000179694;-0,359388
13/09/2023 12:00;;-0,000178183;-0,356366
13/09/2023 12:01;;-0,00017553;-0,351060
13/09/2023 12:02;;-0,000178971;-0,357942
13/09/2023 12:03;;-0,000188743;-0,377486
13/09/2023 12:04;;-0,000171619;-0,343238
13/09/2023 12:05;;-0,00016744;-0,334880
13/09/2023 12:06;;-0,000170531;-0,341062
13/09/2023 12:07;;-0,000182524;-0,365048
13/09/2023 12:08;;-0,000179824;-0,359648
13/09/2023 12:09;;-0,000162498;-0,324996
13/09/2023 12:10;;-0,000169704;-0,339408
13/09/2023 12:11;;-0,000177414;-0,354828
13/09/2023 12:12;;-0,000161464;-0,322928
13/09/2023 12:13;;-0,000156253;-0,312506
13/09/2023 12:15;;-0,000167152;-0,334304
13/09/2023 12:16;;-0,000159976;-0,319952
13/09/2023 12:17;;-0,000158185;-0,316370
13/09/2023 12:18;;-0,000162234;-0,324468
13/09/2023 12:19;;-0,000173059;-0,346118
13/09/2023 12:20;;-0,0001715;-0,343000
13/09/2023 12:21;;-0,000168699;-0,337398
13/09/2023 12:22;;-0,000170536;-0,341072
13/09/2023 12:23;;-0,000180552;-0,361104
13/09/2023 12:24;;-0,000163786;-0,327572
13/09/2023 12:25;;-0,000164509;-0,329018
13/09/2023 12:26;;-0,00016024;-0,320480
13/09/2023 12:27;;-0,00016107;-0,322140
13/09/2023 12:28;;-0,000157052;-0,314104
13/09/2023 12:29;;-0,000166513;-0,333026
13/09/2023 12:30;;-0,000172807;-0,345614
13/09/2023 12:31;;-0,000170916;-0,341832
13/09/2023 12:32;;-0,000151838;-0,303676
13/09/2023 12:33;;-0,000147899;-0,295798
13/09/2023 12:34;;-0,000163545;-0,327090
13/09/2023 12:35;;-0,000155032;-0,310064
13/09/2023 12:36;;-0,000155628;-0,311256
13/09/2023 12:37;;-0,000158384;-0,316768
13/09/2023 12:38;;-0,000164708;-0,329416
13/09/2023 12:39;;-0,000158248;-0,316496
13/09/2023 12:40;;-0,000146808;-0,293616
13/09/2023 12:41;;-0,000161816;-0,323632
13/09/2023 12:42;;-0,00015827;-0,316540
13/09/2023 12:43;;-0,000162505;-0,325010
13/09/2023 12:44;;-0,000161295;-0,322590
13/09/2023 12:45;;-0,000179708;-0,359416
13/09/2023 12:46;;-0,000170798;-0,341596
13/09/2023 12:47;;-0,000152836;-0,305672
13/09/2023 12:48;;-0,000144215;-0,288430
13/09/2023 12:49;;-0,00015435;-0,308700
13/09/2023 12:50;;-0,000157012;-0,314024
13/09/2023 12:51;;-0,00015034;-0,300680
13/09/2023 12:52;;-0,00014355;-0,287100
13/09/2023 12:53;;-0,000148316;-0,296632
13/09/2023 12:54;;-0,000156256;-0,312512
13/09/2023 12:55;;-0,000150932;-0,301864
13/09/2023 12:56;;-0,000148161;-0,296322
13/09/2023 12:57;;-0,000143552;-0,287104
13/09/2023 12:58;;-0,000153099;-0,306198
13/09/2023 12:59;;-0,000157508;-0,315016
13/09/2023 13:00;;-0,00016013;-0,320260
13/09/2023 13:01;;-0,000143492;-0,286984
13/09/2023 13:02;;-0,000141483;-0,282966
13/09/2023 13:03;;-0,00014402;-0,288040
13/09/2023 13:04;;-0,000169215;-0,338430
13/09/2023 13:05;;-0,000158607;-0,317214
13/09/2023 13:06;;-0,000152149;-0,304298
13/09/2023 13:07;;-0,000153185;-0,306370
13/09/2023 13:08;;-0,000147907;-0,295814
13/09/2023 13:09;;-0,000152332;-0,304664
13/09/2023 13:10;;-0,000177462;-0,354924
13/09/2023 13:11;;-0,000155213;-0,310426
13/09/2023 13:12;;-0,000147722;-0,295444
13/09/2023 13:13;;-0,00015278;-0,305560
13/09/2023 13:14;;-0,000145148;-0,290296
13/09/2023 13:15;;-0,000145532;-0,291064
13/09/2023 13:16;;-0,000151492;-0,302984
13/09/2023 13:17;;-0,000163073;-0,326146
13/09/2023 13:18;;-0,000159014;-0,318028
13/09/2023 13:19;;-0,000155412;-0,310824
13/09/2023 13:20;;-0,000156381;-0,312762
13/09/2023 13:21;;-0,000150434;-0,300868
13/09/2023 13:22;;-0,000149685;-0,299370
13/09/2023 13:23;;-0,000156954;-0,313908
13/09/2023 13:24;;-0,000158329;-0,316658
13/09/2023 13:25;;-0,000142749;-0,285498
13/09/2023 13:26;;-0,000149759;-0,299518
13/09/2023 13:27;;-0,000140594;-0,281188
13/09/2023 13:28;;-0,000137612;-0,275224
13/09/2023 13:29;;-0,000139342;-0,278684
13/09/2023 13:30;;-0,000147287;-0,294574
13/09/2023 13:31;;-0,00015005;-0,300100
13/09/2023 13:32;;-0,000138102;-0,276204
13/09/2023 13:33;;-0,000129159;-0,258318
13/09/2023 13:34;;-0,000134236;-0,268472
13/09/2023 13:35;;-0,000122729;-0,245458
13/09/2023 13:36;;-0,000111956;-0,223912
13/09/2023 13:37;;-0,000116064;-0,232128
13/09/2023 13:38;;-0,000127875;-0,255750
13/09/2023 13:39;;-0,000124008;-0,248016
13/09/2023 13:40;;-0,000123898;-0,247796
13/09/2023 13:41;;-0,000127738;-0,255476
13/09/2023 13:42;;-0,000136101;-0,272202
13/09/2023 13:43;;-0,000138163;-0,276326
13/09/2023 13:44;;-0,000133612;-0,267224
13/09/2023 13:45;;-0,000127664;-0,255328
13/09/2023 13:46;;-0,000139607;-0,279214
13/09/2023 13:47;;-0,000119853;-0,239706
13/09/2023 13:48;;-0,000113708;-0,227416
13/09/2023 13:49;;-0,000129478;-0,258956
13/09/2023 13:50;;-0,000125028;-0,250056
13/09/2023 13:51;;-0,000136485;-0,272970
13/09/2023 13:52;;-0,000125665;-0,251330
13/09/2023 13:53;;-0,000141684;-0,283368
13/09/2023 13:54;;-0,00013673;-0,273460
13/09/2023 13:56;;-0,000127473;-0,254946
13/09/2023 13:57;;-0,000138262;-0,276524
13/09/2023 13:58;;-0,000141157;-0,282314
13/09/2023 13:59;;-0,000127864;-0,255728
13/09/2023 14:00;;-0,000123056;-0,246112
13/09/2023 14:01;;-0,000126574;-0,253148
13/09/2023 14:02;;-0,000136826;-0,273652
13/09/2023 14:03;;-0,000126672;-0,253344
13/09/2023 14:04;;-0,000117341;-0,234682
13/09/2023 14:05;;-0,000122186;-0,244372
13/09/2023 14:06;;-0,000110361;-0,220722
13/09/2023 14:07;;-0,000130818;-0,261636
13/09/2023 14:08;;-0,000133855;-0,267710
13/09/2023 14:09;;-0,000122899;-0,245798
13/09/2023 14:10;;-0,000113912;-0,227824
13/09/2023 14:11;;-0,000110559;-0,221118
13/09/2023 14:12;;-0,00010643;-0,212860
13/09/2023 14:13;;-0,000102791;-0,205582
13/09/2023 14:14;;-0,000123294;-0,246588
13/09/2023 14:15;;-0,000133356;-0,266712
13/09/2023 14:16;;-0,000133615;-0,267230
13/09/2023 14:17;;-0,00013021;-0,260420
13/09/2023 14:18;;-0,000138224;-0,276448
13/09/2023 14:19;;-0,000131668;-0,263336
13/09/2023 14:20;;-0,000132716;-0,265432
13/09/2023 14:21;;-0,000138611;-0,277222
13/09/2023 14:22;;-0,000139605;-0,279210
13/09/2023 14:23;;-0,000111458;-0,222916
13/09/2023 14:24;;-0,000116551;-0,233102
13/09/2023 14:25;;-0,000127791;-0,255582
13/09/2023 14:26;;-0,000123235;-0,246470
13/09/2023 14:27;;-0,000120762;-0,241524
13/09/2023 14:28;;-0,000108361;-0,216722
13/09/2023 14:29;;-0,000099863;-0,199726
13/09/2023 14:30;;-0,000124826;-0,249652
13/09/2023 14:31;;-0,000130811;-0,261622
13/09/2023 14:32;;-0,000151556;-0,303112
13/09/2023 14:33;;-0,00013322;-0,266440
13/09/2023 14:34;;-0,000133001;-0,266002
13/09/2023 14:35;;-0,000142668;-0,285336
13/09/2023 14:36;;-0,000127343;-0,254686
13/09/2023 14:37;;-0,000137268;-0,274536
13/09/2023 14:38;;-0,000114476;-0,228952
13/09/2023 14:39;;-0,000118367;-0,236734
13/09/2023 14:40;;-0,000112059;-0,224118
13/09/2023 14:41;;-0,000106628;-0,213256
13/09/2023 14:42;;-0,000109901;-0,219802
13/09/2023 14:43;;-0,000107501;-0,215002
13/09/2023 14:44;;-0,000110822;-0,221644
13/09/2023 14:45;;-0,00011631;-0,232620
13/09/2023 14:46;;-0,000111588;-0,223176
13/09/2023 14:47;;-0,000086282;-0,172564
13/09/2023 14:48;;-0,000096795;-0,193590
13/09/2023 14:49;;-0,000109174;-0,218348
13/09/2023 14:50;;-0,000100989;-0,201978
13/09/2023 14:51;;-0,000089461;-0,178922
13/09/2023 14:52;;-0,000089236;-0,178472
13/09/2023 14:53;;-0,00008873;-0,177460
13/09/2023 14:54;;-0,000074552;-0,149104
13/09/2023 14:55;;-0,000078782;-0,157564
13/09/2023 14:56;;-0,000079953;-0,159906
13/09/2023 14:57;;-0,000062326;-0,124652
13/09/2023 14:58;;-0,000080474;-0,160948
13/09/2023 14:59;;-0,000090036;-0,180072
13/09/2023 15:00;;-0,0000849;-0,169800
13/09/2023 15:01;;-0,000093752;-0,187504
13/09/2023 15:02;;-0,000097759;-0,195518
13/09/2023 15:03;;-0,000098321;-0,196642
13/09/2023 15:04;;-0,000093484;-0,186968
13/09/2023 15:05;;-0,000103052;-0,206104
13/09/2023 15:06;;-0,000097564;-0,195128
13/09/2023 15:07;;-0,000090432;-0,180864
13/09/2023 15:08;;-0,000088453;-0,176906
13/09/2023 15:09;;-0,000087534;-0,175068
13/09/2023 15:10;;-0,000087678;-0,175356
13/09/2023 15:11;;-0,000082705;-0,165410
13/09/2023 15:12;;-0,000075769;-0,151538
13/09/2023 15:13;;-0,000080118;-0,160236
13/09/2023 15:14;;-0,0000859;-0,171800
13/09/2023 15:15;;-0,000089484;-0,178968
13/09/2023 15:16;;-0,000084694;-0,169388
13/09/2023 15:17;;-0,000078281;-0,156562
13/09/2023 15:18;;-0,000080547;-0,161094
13/09/2023 15:19;;-0,000083432;-0,166864
13/09/2023 15:20;;-0,000087886;-0,175772
13/09/2023 15:21;;-0,000081299;-0,162598
13/09/2023 15:22;;-0,00008391;-0,167820
13/09/2023 15:23;;-0,000083331;-0,166662
13/09/2023 15:24;;-0,000095045;-0,190090
13/09/2023 15:25;;-0,000091479;-0,182958
13/09/2023 15:26;;-0,000097389;-0,194778
13/09/2023 15:27;;-0,000093358;-0,186716
13/09/2023 15:28;;-0,000094959;-0,189918
13/09/2023 15:29;;-0,000089819;-0,179638
13/09/2023 15:30;;-0,000099487;-0,198974
13/09/2023 15:31;;-0,000083812;-0,167624
13/09/2023 15:32;;-0,000079804;-0,159608
13/09/2023 15:33;;-0,000083627;-0,167254
13/09/2023 15:34;;-0,000084286;-0,168572
13/09/2023 15:36;;-0,000075236;-0,150472
13/09/2023 15:37;;-0,000080421;-0,160842
13/09/2023 15:38;;-0,000082174;-0,164348
13/09/2023 15:39;;-0,00008165;-0,163300
13/09/2023 15:40;;-0,000079377;-0,158754
13/09/2023 15:41;;-0,000079279;-0,158558
13/09/2023 15:42;;-0,000077069;-0,154138
13/09/2023 15:43;;-0,000068216;-0,136432
13/09/2023 15:44;;-0,000076644;-0,153288
13/09/2023 15:45;;-0,00008177;-0,163540
13/09/2023 15:46;;-0,000087519;-0,175038
13/09/2023 15:47;;-0,00007772;-0,155440
13/09/2023 15:48;;-0,000090386;-0,180772
13/09/2023 15:49;;-0,000087996;-0,175992
13/09/2023 15:50;;-0,000096401;-0,192802
13/09/2023 15:51;;-0,000089244;-0,178488
13/09/2023 15:52;;-0,00008891;-0,177820
13/09/2023 15:53;;-0,000082795;-0,165590
13/09/2023 15:54;;-0,000081157;-0,162314
13/09/2023 15:55;;-0,000065416;-0,130832
13/09/2023 15:56;;-0,000069244;-0,138488
13/09/2023 15:57;;-0,000081454;-0,162908
13/09/2023 15:58;;-0,000078842;-0,157684
13/09/2023 15:59;;-0,000079267;-0,158534
13/09/2023 16:00;;-0,000080556;-0,161112
13/09/2023 16:01;;-0,000081296;-0,162592
13/09/2023 16:02;;-0,000097086;-0,194172
13/09/2023 16:03;;-0,000089811;-0,179622
13/09/2023 16:04;;-0,000074042;-0,148084
13/09/2023 16:05;;-0,000059579;-0,119158
13/09/2023 16:06;;-0,000071241;-0,142482
13/09/2023 16:07;;-0,000057954;-0,115908
13/09/2023 16:08;;-0,00007953;-0,159060
13/09/2023 16:09;;-0,00009146;-0,182920
13/09/2023 16:10;;-0,000091799;-0,183598
13/09/2023 16:11;;-0,000080718;-0,161436
13/09/2023 16:12;;-0,000092188;-0,184376
13/09/2023 16:13;;-0,000099991;-0,199982
13/09/2023 16:14;;-0,00008696;-0,173920
13/09/2023 16:15;;-0,000088518;-0,177036
13/09/2023 16:16;;-0,000086621;-0,173242
13/09/2023 16:17;;-0,000090405;-0,180810
13/09/2023 16:18;;-0,000088461;-0,176922
13/09/2023 16:19;;-0,000091389;-0,182778
13/09/2023 16:20;;-0,000088777;-0,177554
13/09/2023 16:21;;-0,000086734;-0,173468
13/09/2023 16:22;;-0,000085526;-0,171052
13/09/2023 16:23;;-0,000099202;-0,198404
13/09/2023 16:24;;-0,000113188;-0,226376
13/09/2023 16:25;;-0,000112476;-0,224952
13/09/2023 16:26;;-0,000102252;-0,204504
13/09/2023 16:27;;-0,000100145;-0,200290
13/09/2023 16:28;;-0,000101766;-0,203532
13/09/2023 16:29;;-0,000105848;-0,211696
13/09/2023 16:30;;-0,000090608;-0,181216
13/09/2023 16:31;;-0,000087617;-0,175234
13/09/2023 16:32;;-0,000095189;-0,190378
13/09/2023 16:33;;-0,000084179;-0,168358
13/09/2023 16:34;;-0,000065244;-0,130488
13/09/2023 16:35;;-0,000075025;-0,150050
13/09/2023 16:36;;-0,000073216;-0,146432
13/09/2023 16:37;;-0,000084263;-0,168526
13/09/2023 16:38;;-0,000091469;-0,182938
13/09/2023 16:39;;-0,00009033;-0,180660
13/09/2023 16:40;;-0,000086903;-0,173806
13/09/2023 16:41;;-0,00008611;-0,172220
13/09/2023 16:42;;-0,00007759;-0,155180
13/09/2023 16:43;;-0,000080787;-0,161574
13/09/2023 16:44;;-0,000093702;-0,187404
13/09/2023 16:45;;-0,00008975;-0,179500
13/09/2023 16:46;;-0,000090654;-0,181308
13/09/2023 16:47;;-0,000077157;-0,154314
13/09/2023 16:48;;-0,000067646;-0,135292
13/09/2023 16:49;;-0,00006999;-0,139980
13/09/2023 16:50;;-0,000066594;-0,133188
13/09/2023 16:51;;-0,000064692;-0,129384
13/09/2023 16:52;;-0,000060987;-0,121974
13/09/2023 16:53;;-0,000056653;-0,113306
13/09/2023 16:54;;-0,000061559;-0,123118
13/09/2023 16:55;;-0,000061982;-0,123964
13/09/2023 16:56;;-0,000071269;-0,142538
13/09/2023 16:57;;-0,000076714;-0,153428
13/09/2023 16:58;;-0,000070213;-0,140426
13/09/2023 16:59;;-0,000066207;-0,132414
13/09/2023 17:00;;-0,000059587;-0,119174
13/09/2023 17:01;;-0,000077693;-0,155386
13/09/2023 17:02;;-0,000074279;-0,148558
13/09/2023 17:03;;-0,000076709;-0,153418
13/09/2023 17:04;;-0,00007702;-0,154040
13/09/2023 17:05;;-0,000072652;-0,145304
13/09/2023 17:06;;-0,000079708;-0,159416
13/09/2023 17:07;;-0,000074877;-0,149754
13/09/2023 17:08;;-0,000074842;-0,149684
13/09/2023 17:09;;-0,000071603;-0,143206
13/09/2023 17:10;;-0,000073592;-0,147184
13/09/2023 17:11;;-0,000088577;-0,177154
13/09/2023 17:12;;-0,000069708;-0,139416
13/09/2023 17:13;;-0,000059921;-0,119842
13/09/2023 17:14;;-0,000061985;-0,123970
13/09/2023 17:15;;-0,000061901;-0,123802
13/09/2023 17:17;;-0,000080484;-0,160968
13/09/2023 17:18;;-0,000079064;-0,158128
13/09/2023 17:19;;-0,000063481;-0,126962
13/09/2023 17:20;;-0,000060978;-0,121956
13/09/2023 17:21;;-0,000068427;-0,136854
13/09/2023 17:22;;-0,000081616;-0,163232
13/09/2023 17:23;;-0,000081424;-0,162848
13/09/2023 17:24;;-0,000078501;-0,157002
13/09/2023 17:25;;-0,000084665;-0,169330
13/09/2023 17:26;;-0,000080564;-0,161128
13/09/2023 17:27;;-0,00008355;-0,167100
13/09/2023 17:28;;-0,000078923;-0,157846
13/09/2023 17:29;;-0,000087768;-0,175536
13/09/2023 17:30;;-0,000090119;-0,180238
13/09/2023 17:31;;-0,000102127;-0,204254
13/09/2023 17:32;;-0,000104154;-0,208308
13/09/2023 17:33;;-0,000100013;-0,200026
13/09/2023 17:34;;-0,000092269;-0,184538
13/09/2023 17:35;;-0,00010235;-0,204700
13/09/2023 17:36;;-0,000096581;-0,193162
13/09/2023 17:37;;-0,000095802;-0,191604
13/09/2023 17:38;;-0,000098284;-0,196568
13/09/2023 17:39;;-0,000097931;-0,195862
13/09/2023 17:40;;-0,000097166;-0,194332
13/09/2023 17:41;;-0,000105512;-0,211024
13/09/2023 17:42;;-0,000095322;-0,190644
13/09/2023 17:43;;-0,000095524;-0,191048
13/09/2023 17:44;;-0,000091779;-0,183558
13/09/2023 17:45;;-0,000084213;-0,168426
13/09/2023 17:46;;-0,000088993;-0,177986
13/09/2023 17:47;;-0,000073362;-0,146724
13/09/2023 17:48;;-0,000082409;-0,164818
13/09/2023 17:49;;-0,000081735;-0,163470
13/09/2023 17:50;;-0,000084432;-0,168864
13/09/2023 17:51;;-0,000091105;-0,182210
13/09/2023 17:52;;-0,000074668;-0,149336
13/09/2023 17:53;;-0,000085078;-0,170156
13/09/2023 17:54;;-0,000074192;-0,148384
13/09/2023 17:55;;-0,000074708;-0,149416
13/09/2023 17:56;;-0,000084838;-0,169676
13/09/2023 17:57;;-0,000086246;-0,172492
13/09/2023 17:58;;-0,000081705;-0,163410
13/09/2023 17:59;;-0,000087218;-0,174436
13/09/2023 18:00;;-0,000095248;-0,190496
13/09/2023 18:01;;-0,00008473;-0,169460
13/09/2023 18:02;;-0,00009477;-0,189540
13/09/2023 18:03;;-0,000090124;-0,180248
13/09/2023 18:04;;-0,000099936;-0,199872
13/09/2023 18:05;;-0,000099796;-0,199592
13/09/2023 18:06;;-0,000087107;-0,174214
13/09/2023 18:07;;-0,00008573;-0,171460
13/09/2023 18:08;;-0,000096939;-0,193878
13/09/2023 18:09;;-0,000095695;-0,191390
13/09/2023 18:10;;-0,000094518;-0,189036
13/09/2023 18:11;;-0,000087529;-0,175058
13/09/2023 18:12;;-0,000095734;-0,191468
13/09/2023 18:13;;-0,000100091;-0,200182
13/09/2023 18:14;;-0,000101645;-0,203290
13/09/2023 18:15;;-0,000106687;-0,213374
13/09/2023 18:16;;-0,000096067;-0,192134
13/09/2023 18:17;;-0,000086485;-0,172970
13/09/2023 18:18;;-0,000086243;-0,172486
13/09/2023 18:19;;-0,000096221;-0,192442
13/09/2023 18:20;;-0,000095297;-0,190594
13/09/2023 18:21;;-0,000103148;-0,206296
13/09/2023 18:22;;-0,000103223;-0,206446
13/09/2023 18:23;;-0,000112848;-0,225696
13/09/2023 18:24;;-0,00010207;-0,204140
13/09/2023 18:25;;-0,000104004;-0,208008
13/09/2023 18:26;;-0,000092613;-0,185226
13/09/2023 18:27;;-0,00008738;-0,174760
13/09/2023 18:28;;-0,000091818;-0,183636
13/09/2023 18:29;;-0,000090524;-0,181048
13/09/2023 18:30;;-0,00009704;-0,194080
13/09/2023 18:31;;-0,000101197;-0,202394
13/09/2023 18:32;;-0,000107648;-0,215296
13/09/2023 18:33;;-0,000089942;-0,179884
13/09/2023 18:34;;-0,000107869;-0,215738
13/09/2023 18:35;;-0,000096122;-0,192244
13/09/2023 18:36;;-0,000093838;-0,187676
13/09/2023 18:37;;-0,000099274;-0,198548
13/09/2023 18:38;;-0,000096683;-0,193366
13/09/2023 18:39;;-0,000099238;-0,198476
13/09/2023 18:40;;-0,000092152;-0,184304
13/09/2023 18:41;;-0,000081166;-0,162332
13/09/2023 18:42;;-0,000098094;-0,196188
13/09/2023 18:43;;-0,00011565;-0,231300
13/09/2023 18:44;;-0,000107705;-0,215410
13/09/2023 18:45;;-0,000106564;-0,213128
13/09/2023 18:46;;-0,000094869;-0,189738
13/09/2023 18:47;;-0,000112017;-0,224034
13/09/2023 18:48;;-0,000102112;-0,204224
13/09/2023 18:49;;-0,000097436;-0,194872
13/09/2023 18:50;;-0,000098372;-0,196744
13/09/2023 18:51;;-0,000109377;-0,218754
13/09/2023 18:52;;-0,000101432;-0,202864
13/09/2023 18:53;;-0,000107774;-0,215548
13/09/2023 18:54;;-0,000125268;-0,250536
13/09/2023 18:55;;-0,000125277;-0,250554
13/09/2023 18:56;;-0,000118167;-0,236334
13/09/2023 18:58;;-0,00012703;-0,254060
13/09/2023 18:59;;-0,000128473;-0,256946
13/09/2023 19:00;;-0,000116881;-0,233762
13/09/2023 19:01;;-0,000112181;-0,224362
13/09/2023 19:02;;-0,000115141;-0,230282
13/09/2023 19:03;;-0,00011987;-0,239740
13/09/2023 19:04;;-0,00011715;-0,234300
13/09/2023 19:05;;-0,000117153;-0,234306
13/09/2023 19:06;;-0,000129556;-0,259112
13/09/2023 19:07;;-0,00011674;-0,233480
13/09/2023 19:08;;-0,000123421;-0,246842
13/09/2023 19:09;;-0,000131281;-0,262562
13/09/2023 19:10;;-0,000136866;-0,273732
13/09/2023 19:11;;-0,0001265;-0,253000
13/09/2023 19:12;;-0,00012081;-0,241620
13/09/2023 19:13;;-0,000119039;-0,238078
13/09/2023 19:14;;-0,000119371;-0,238742
13/09/2023 19:15;;-0,000108373;-0,216746
13/09/2023 19:16;;-0,000114524;-0,229048
13/09/2023 19:17;;-0,00011629;-0,232580
13/09/2023 19:18;;-0,000114725;-0,229450
13/09/2023 19:19;;-0,000124033;-0,248066
13/09/2023 19:20;;-0,000141073;-0,282146
13/09/2023 19:21;;-0,000129268;-0,258536
13/09/2023 19:22;;-0,000118244;-0,236488
13/09/2023 19:23;;-0,000121755;-0,243510
13/09/2023 19:24;;-0,000115497;-0,230994
13/09/2023 19:25;;-0,000113807;-0,227614
13/09/2023 19:26;;-0,000121171;-0,242342
13/09/2023 19:27;;-0,000124953;-0,249906
13/09/2023 19:28;;-0,000118312;-0,236624
13/09/2023 19:29;;-0,000118881;-0,237762
13/09/2023 19:30;;-0,000126097;-0,252194
13/09/2023 19:31;;-0,000122094;-0,244188
13/09/2023 19:32;;-0,000122126;-0,244252
13/09/2023 19:33;;-0,000109052;-0,218104
13/09/2023 19:34;;-0,000122701;-0,245402
13/09/2023 19:35;;-0,000117544;-0,235088
13/09/2023 19:36;;-0,000117719;-0,235438
13/09/2023 19:37;;-0,000115432;-0,230864
13/09/2023 19:38;;-0,0001172;-0,234400
13/09/2023 19:39;;-0,000106244;-0,212488
13/09/2023 19:40;;-0,000122068;-0,244136
13/09/2023 19:41;;-0,000137098;-0,274196
13/09/2023 19:42;;-0,00011446;-0,228920
13/09/2023 19:43;;-0,000125411;-0,250822
13/09/2023 19:44;;-0,000135942;-0,271884
13/09/2023 19:45;;-0,000132595;-0,265190
13/09/2023 19:46;;-0,000123377;-0,246754
13/09/2023 19:47;;-0,000120362;-0,240724
13/09/2023 19:48;;-0,000136272;-0,272544
13/09/2023 19:49;;-0,000123858;-0,247716
13/09/2023 19:50;;-0,000127713;-0,255426
13/09/2023 19:51;;-0,000117598;-0,235196
13/09/2023 19:52;;-0,000121205;-0,242410
13/09/2023 19:53;;-0,000136691;-0,273382
13/09/2023 19:54;;-0,000126039;-0,252078
13/09/2023 19:55;;-0,000130631;-0,261262
13/09/2023 19:56;;-0,000142104;-0,284208
13/09/2023 19:57;;-0,00015442;-0,308840
13/09/2023 19:58;;-0,000140965;-0,281930
13/09/2023 19:59;;-0,000137921;-0,275842
13/09/2023 20:00;;-0,000115717;-0,231434
13/09/2023 20:01;;-0,000131755;-0,263510
13/09/2023 20:02;;-0,00013537;-0,270740
13/09/2023 20:03;;-0,000136711;-0,273422
13/09/2023 20:04;;-0,000124194;-0,248388
13/09/2023 20:05;;-0,000118069;-0,236138
13/09/2023 20:06;;-0,000117839;-0,235678
13/09/2023 20:07;;-0,000119302;-0,238604
13/09/2023 20:08;;-0,000104501;-0,209002
13/09/2023 20:09;;-0,000115543;-0,231086
13/09/2023 20:10;;-0,000101492;-0,202984
13/09/2023 20:11;;-0,000108468;-0,216936
13/09/2023 20:12;;-0,000101075;-0,202150
13/09/2023 20:13;;-0,000104032;-0,208064
13/09/2023 20:14;;-0,000102629;-0,205258
13/09/2023 20:15;;-0,000103339;-0,206678
13/09/2023 20:16;;-0,000104021;-0,208042
13/09/2023 20:17;;-0,000092547;-0,185094
13/09/2023 20:18;;-0,000099255;-0,198510
13/09/2023 20:19;;-0,000121016;-0,242032
13/09/2023 20:20;;-0,000117556;-0,235112
13/09/2023 20:21;;-0,000110323;-0,220646
13/09/2023 20:22;;-0,000116112;-0,232224
13/09/2023 20:23;;-0,00013073;-0,261460
13/09/2023 20:24;;-0,000104144;-0,208288
13/09/2023 20:25;;-0,000114623;-0,229246
13/09/2023 20:26;;-0,000109274;-0,218548
13/09/2023 20:27;;-0,000111033;-0,222066
13/09/2023 20:28;;-0,000114186;-0,228372
13/09/2023 20:29;;-0,000102084;-0,204168
13/09/2023 20:30;;-0,000095425;-0,190850
13/09/2023 20:31;;-0,000093032;-0,186064
13/09/2023 20:32;;-0,000105643;-0,211286
13/09/2023 20:33;;-0,000093554;-0,187108
13/09/2023 20:34;;-0,00009744;-0,194880
13/09/2023 20:35;;-0,000117411;-0,234822
13/09/2023 20:36;;-0,000121778;-0,243556
13/09/2023 20:37;;-0,000115262;-0,230524
13/09/2023 20:39;;-0,000106131;-0,212262
13/09/2023 20:40;;-0,000121545;-0,243090
13/09/2023 20:41;;-0,000122039;-0,244078
13/09/2023 20:42;;-0,000135023;-0,270046
13/09/2023 20:43;;-0,000130394;-0,260788
13/09/2023 20:44;;-0,000115972;-0,231944
13/09/2023 20:45;;-0,000123037;-0,246074
13/09/2023 20:46;;-0,000120883;-0,241766
13/09/2023 20:47;;-0,000110403;-0,220806
13/09/2023 20:48;;-0,00011102;-0,222040
13/09/2023 20:49;;-0,000115402;-0,230804
13/09/2023 20:50;;-0,000119531;-0,239062
13/09/2023 20:51;;-0,000124189;-0,248378
13/09/2023 20:52;;-0,000131279;-0,262558
13/09/2023 20:53;;-0,000134616;-0,269232
13/09/2023 20:54;;-0,000119491;-0,238982
13/09/2023 20:55;;-0,000134571;-0,269142
13/09/2023 20:56;;-0,00011803;-0,236060
13/09/2023 20:57;;-0,000113985;-0,227970
13/09/2023 20:58;;-0,000124759;-0,249518
13/09/2023 20:59;;-0,000121435;-0,242870
13/09/2023 21:00;;-0,000118561;-0,237122
13/09/2023 21:01;;-0,000127464;-0,254928
13/09/2023 21:02;;-0,0001258;-0,251600
13/09/2023 21:03;;-0,000118065;-0,236130
13/09/2023 21:04;;-0,000118968;-0,237936
13/09/2023 21:05;;-0,000125933;-0,251866
13/09/2023 21:06;;-0,000121835;-0,243670
13/09/2023 21:07;;-0,000121154;-0,242308
13/09/2023 21:08;;-0,000118387;-0,236774
13/09/2023 21:09;;-0,000114657;-0,229314
13/09/2023 21:10;;-0,000119617;-0,239234
13/09/2023 21:11;;-0,000111649;-0,223298
13/09/2023 21:12;;-0,000115439;-0,230878
13/09/2023 21:13;;-0,000107864;-0,215728
13/09/2023 21:14;;-0,000115369;-0,230738
13/09/2023 21:15;;-0,000130748;-0,261496
13/09/2023 21:16;;-0,000128343;-0,256686
13/09/2023 21:17;;-0,000115697;-0,231394
13/09/2023 21:18;;-0,000127111;-0,254222
13/09/2023 21:19;;-0,00012091;-0,241820
13/09/2023 21:20;;-0,000110085;-0,220170
13/09/2023 21:21;;-0,000126603;-0,253206
13/09/2023 21:22;;-0,00012742;-0,254840
13/09/2023 21:23;;-0,000133364;-0,266728
13/09/2023 21:24;;-0,000136447;-0,272894
13/09/2023 21:25;;-0,000137229;-0,274458
13/09/2023 21:26;;-0,000146651;-0,293302
13/09/2023 21:27;;-0,000141081;-0,282162
13/09/2023 21:28;;-0,000131235;-0,262470
13/09/2023 21:29;;-0,000150333;-0,300666
13/09/2023 21:30;;-0,000139493;-0,278986
13/09/2023 21:31;;-0,000131458;-0,262916
13/09/2023 21:32;;-0,000132056;-0,264112
13/09/2023 21:33;;-0,000128348;-0,256696
13/09/2023 21:34;;-0,000122732;-0,245464
13/09/2023 21:35;;-0,000133154;-0,266308
13/09/2023 21:36;;-0,000136991;-0,273982
13/09/2023 21:37;;-0,000132434;-0,264868
13/09/2023 21:38;;-0,000139816;-0,279632
13/09/2023 21:39;;-0,000140544;-0,281088
13/09/2023 21:40;;-0,000129272;-0,258544
13/09/2023 21:41;;-0,000131011;-0,262022
13/09/2023 21:42;;-0,00013627;-0,272540
13/09/2023 21:43;;-0,000135094;-0,270188
13/09/2023 21:44;;-0,000133785;-0,267570
13/09/2023 21:45;;-0,000136032;-0,272064
13/09/2023 21:46;;-0,000133166;-0,266332
13/09/2023 21:47;;-0,000138093;-0,276186
13/09/2023 21:48;;-0,00013228;-0,264560
13/09/2023 21:49;;-0,000131661;-0,263322
13/09/2023 21:50;;-0,000126821;-0,253642
13/09/2023 21:51;;-0,00012956;-0,259120
13/09/2023 21:52;;-0,000143872;-0,287744
13/09/2023 21:53;;-0,000144694;-0,289388
13/09/2023 21:54;;-0,000144921;-0,289842
13/09/2023 21:55;;-0,000136407;-0,272814
13/09/2023 21:56;;-0,000146066;-0,292132
13/09/2023 21:57;;-0,000145786;-0,291572
13/09/2023 21:58;;-0,000145668;-0,291336
13/09/2023 21:59;;-0,000142873;-0,285746
13/09/2023 22:00;;-0,000119978;-0,239956
13/09/2023 22:01;;-0,000125765;-0,251530
13/09/2023 22:02;;-0,000125006;-0,250012
13/09/2023 22:03;;-0,000129156;-0,258312
13/09/2023 22:04;;-0,000149679;-0,299358
13/09/2023 22:05;;-0,000140179;-0,280358
13/09/2023 22:06;;-0,000133268;-0,266536
13/09/2023 22:07;;-0,000140004;-0,280008
13/09/2023 22:08;;-0,000147122;-0,294244
13/09/2023 22:09;;-0,000157851;-0,315702
13/09/2023 22:10;;-0,000147404;-0,294808
13/09/2023 22:11;;-0,000126069;-0,252138
13/09/2023 22:12;;-0,000132483;-0,264966
13/09/2023 22:13;;-0,000143198;-0,286396
13/09/2023 22:14;;-0,000139801;-0,279602
13/09/2023 22:15;;-0,000149233;-0,298466
13/09/2023 22:16;;-0,000147383;-0,294766
