2023-09-13 10:32:00,-0.304036
2023-09-13 10:34:00,-0.315276
2023-09-13 10:35:00,-0.318718
2023-09-13 10:36:00,-0.302804
2023-09-13 10:37:00,-0.306252
2023-09-13 10:38:00,-0.303812
2023-09-13 10:39:00,-0.321558
2023-09-13 10:40:00,-0.343452
2023-09-13 10:41:00,-0.354412
2023-09-13 10:42:00,-0.32375
2023-09-13 10:43:00,-0.334696
2023-09-13 10:44:00,-0.324828
2023-09-13 10:45:00,-0.376668
2023-09-13 10:46:00,-0.38957
2023-09-13 10:47:00,-0.363924
2023-09-13 10:48:00,-0.362426
2023-09-13 10:49:00,-0.359356
2023-09-13 10:50:00,-0.40552
2023-09-13 10:51:00,-0.409444
2023-09-13 10:52:00,-0.39677
2023-09-13 10:53:00,-0.420664
2023-09-13 10:54:00,-0.39864
2023-09-13 10:55:00,-0.404374
2023-09-13 10:56:00,-0.366906
2023-09-13 10:57:00,-0.389508
2023-09-13 10:58:00,-0.385902
2023-09-13 10:59:00,-0.387458
2023-09-13 11:00:00,-0.37775
2023-09-13 11:01:00,-0.354816
2023-09-13 11:02:00,-0.360306
2023-09-13 11:03:00,-0.356044
2023-09-13 11:04:00,-0.371896
2023-09-13 11:05:00,-0.39411
2023-09-13 11:06:00,-0.396614
2023-09-13 11:07:00,-0.404994
2023-09-13 11:08:00,-0.398252
2023-09-13 11:09:00,-0.395992
2023-09-13 11:10:00,-0.407562
2023-09-13 11:11:00,-0.38184
2023-09-13 11:12:00,-0.376638
2023-09-13 11:13:00,-0.348886
2023-09-13 11:14:00,-0.360134
2023-09-13 11:15:00,-0.375154
2023-09-13 11:16:00,-0.413554
2023-09-13 11:17:00,-0.398312
2023-09-13 11:18:00,-0.402002
2023-09-13 11:19:00,-0.384402
2023-09-13 11:20:00,-0.404578
2023-09-13 11:21:00,-0.371332
2023-09-13 11:22:00,-0.352614
2023-09-13 11:23:00,-0.351312
2023-09-13 11:24:00,-0.390388
2023-09-13 11:25:00,-0.398984
2023-09-13 11:26:00,-0.401068
2023-09-13 11:27:00,-0.373234
2023-09-13 11:28:00,-0.39856
2023-09-13 11:29:00,-0.399972
2023-09-13 11:30:00,-0.428146
2023-09-13 11:31:00,-0.420036
2023-09-13 11:32:00,-0.427322
2023-09-13 11:33:00,-0.42917
2023-09-13 11:34:00,-0.432792
2023-09-13 11:35:00,-0.41215
2023-09-13 11:36:00,-0.41972
2023-09-13 11:37:00,-0.439686
2023-09-13 11:38:00,-0.434492
2023-09-13 11:39:00,-0.437444
2023-09-13 11:40:00,-0.415488
2023-09-13 11:41:00,-0.398402
2023-09-13 11:42:00,-0.389062
2023-09-13 11:43:00,-0.39916
2023-09-13 11:44:00,-0.411512
2023-09-13 11:45:00,-0.403158
2023-09-13 11:46:00,-0.400382
2023-09-13 11:47:00,-0.361998
2023-09-13 11:48:00,-0.38205
2023-09-13 11:49:00,-0.40229
2023-09-13 11:50:00,-0.365596
2023-09-13 11:51:00,-0.37488
2023-09-13 11:52:00,-0.393114
2023-09-13 11:53:00,-0.393568
2023-09-13 11:54:00,-0.39937
2023-09-13 11:55:00,-0.389174
2023-09-13 11:56:00,-0.375886
2023-09-13 11:57:00,-0.385224
2023-09-13 11:58:00,-0.37604
2023-09-13 11:59:00,-0.359388
2023-09-13 12:00:00,-0.356366
2023-09-13 12:01:00,-0.35106
2023-09-13 12:02:00,-0.357942
2023-09-13 12:03:00,-0.377486
2023-09-13 12:04:00,-0.343238
2023-09-13 12:05:00,-0.33488
2023-09-13 12:06:00,-0.341062
2023-09-13 12:07:00,-0.365048
2023-09-13 12:08:00,-0.359648
2023-09-13 12:09:00,-0.324996
2023-09-13 12:10:00,-0.339408
2023-09-13 12:11:00,-0.354828
2023-09-13 12:12:00,-0.322928
2023-09-13 12:13:00,-0.312506
2023-09-13 12:15:00,-0.334304
2023-09-13 12:16:00,-0.319952
2023-09-13 12:17:00,-0.31637
2023-09-13 12:18:00,-0.324468
2023-09-13 12:19:00,-0.346118
2023-09-13 12:20:00,-0.343
2023-09-13 12:21:00,-0.337398
2023-09-13 12:22:00,-0.341072
2023-09-13 12:23:00,-0.361104
2023-09-13 12:24:00,-0.327572
2023-09-13 12:25:00,-0.329018
2023-09-13 12:26:00,-0.32048
2023-09-13 12:27:00,-0.32214
2023-09-13 12:28:00,-0.314104
2023-09-13 12:29:00,-0.333026
2023-09-13 12:30:00,-0.345614
2023-09-13 12:31:00,-0.341832
2023-09-13 12:32:00,-0.303676
2023-09-13 12:33:00,-0.295798
2023-09-13 12:34:00,-0.32709
2023-09-13 12:35:00,-0.310064
2023-09-13 12:36:00,-0.311256
2023-09-13 12:37:00,-0.316768
2023-09-13 12:38:00,-0.329416
2023-09-13 12:39:00,-0.316496
2023-09-13 12:40:00,-0.293616
2023-09-13 12:41:00,-0.323632
2023-09-13 12:42:00,-0.31654
2023-09-13 12:43:00,-0.32501
2023-09-13 12:44:00,-0.32259
2023-09-13 12:45:00,-0.359416
2023-09-13 12:46:00,-0.341596
2023-09-13 12:47:00,-0.305672
2023-09-13 12:48:00,-0.28843
2023-09-13 12:49:00,-0.3087
2023-09-13 12:50:00,-0.314024
2023-09-13 12:51:00,-0.30068
2023-09-13 12:52:00,-0.2871
2023-09-13 12:53:00,-0.296632
2023-09-13 12:54:00,-0.312512
2023-09-13 12:55:00,-0.301864
2023-09-13 12:56:00,-0.296322
2023-09-13 12:57:00,-0.287104
2023-09-13 12:58:00,-0.306198
2023-09-13 12:59:00,-0.315016
2023-09-13 13:00:00,-0.32026
2023-09-13 13:01:00,-0.286984
2023-09-13 13:02:00,-0.282966
2023-09-13 13:03:00,-0.28804
2023-09-13 13:04:00,-0.33843
2023-09-13 13:05:00,-0.317214
2023-09-13 13:06:00,-0.304298
2023-09-13 13:07:00,-0.30637
2023-09-13 13:08:00,-0.295814
2023-09-13 13:09:00,-0.304664
2023-09-13 13:10:00,-0.354924
2023-09-13 13:11:00,-0.310426
2023-09-13 13:12:00,-0.295444
2023-09-13 13:13:00,-0.30556
2023-09-13 13:14:00,-0.290296
2023-09-13 13:15:00,-0.291064
2023-09-13 13:16:00,-0.302984
2023-09-13 13:17:00,-0.326146
2023-09-13 13:18:00,-0.318028
2023-09-13 13:19:00,-0.310824
2023-09-13 13:20:00,-0.312762
2023-09-13 13:21:00,-0.300868
2023-09-13 13:22:00,-0.29937
2023-09-13 13:23:00,-0.313908
2023-09-13 13:24:00,-0.316658
2023-09-13 13:25:00,-0.285498
2023-09-13 13:26:00,-0.299518
2023-09-13 13:27:00,-0.281188
2023-09-13 13:28:00,-0.275224
2023-09-13 13:29:00,-0.278684
2023-09-13 13:30:00,-0.294574
2023-09-13 13:31:00,-0.3001
2023-09-13 13:32:00,-0.276204
2023-09-13 13:33:00,-0.258318
2023-09-13 13:34:00,-0.268472
2023-09-13 13:35:00,-0.245458
2023-09-13 13:36:00,-0.223912
2023-09-13 13:37:00,-0.232128
2023-09-13 13:38:00,-0.25575
2023-09-13 13:39:00,-0.248016
2023-09-13 13:40:00,-0.247796
2023-09-13 13:41:00,-0.255476
2023-09-13 13:42:00,-0.272202
2023-09-13 13:43:00,-0.276326
2023-09-13 13:44:00,-0.267224
2023-09-13 13:45:00,-0.255328
2023-09-13 13:46:00,-0.279214
2023-09-13 13:47:00,-0.239706
2023-09-13 13:48:00,-0.227416
2023-09-13 13:49:00,-0.258956
2023-09-13 13:50:00,-0.250056
2023-09-13 13:51:00,-0.27297
2023-09-13 13:52:00,-0.25133
2023-09-13 13:53:00,-0.283368
2023-09-13 13:54:00,-0.27346
2023-09-13 13:56:00,-0.254946
2023-09-13 13:57:00,-0.276524
2023-09-13 13:58:00,-0.282314
2023-09-13 13:59:00,-0.255728
2023-09-13 14:00:00,-0.246112
2023-09-13 14:01:00,-0.253148
2023-09-13 14:02:00,-0.273652
2023-09-13 14:03:00,-0.253344
2023-09-13 14:04:00,-0.234682
2023-09-13 14:05:00,-0.244372
2023-09-13 14:06:00,-0.220722
2023-09-13 14:07:00,-0.261636
2023-09-13 14:08:00,-0.26771
2023-09-13 14:09:00,-0.245798
2023-09-13 14:10:00,-0.227824
2023-09-13 14:11:00,-0.221118
2023-09-13 14:12:00,-0.21286
2023-09-13 14:13:00,-0.205582
2023-09-13 14:14:00,-0.246588
2023-09-13 14:15:00,-0.266712
2023-09-13 14:16:00,-0.26723
2023-09-13 14:17:00,-0.26042
2023-09-13 14:18:00,-0.276448
2023-09-13 14:19:00,-0.263336
2023-09-13 14:20:00,-0.265432
2023-09-13 14:21:00,-0.277222
2023-09-13 14:22:00,-0.27921
2023-09-13 14:23:00,-0.222916
2023-09-13 14:24:00,-0.233102
2023-09-13 14:25:00,-0.255582
2023-09-13 14:26:00,-0.24647
2023-09-13 14:27:00,-0.241524
2023-09-13 14:28:00,-0.216722
2023-09-13 14:29:00,-0.199726
2023-09-13 14:30:00,-0.249652
2023-09-13 14:31:00,-0.261622
2023-09-13 14:32:00,-0.303112
2023-09-13 14:33:00,-0.26644
2023-09-13 14:34:00,-0.266002
2023-09-13 14:35:00,-0.285336
2023-09-13 14:36:00,-0.254686
2023-09-13 14:37:00,-0.274536
2023-09-13 14:38:00,-0.228952
2023-09-13 14:39:00,-0.236734
2023-09-13 14:40:00,-0.224118
2023-09-13 14:41:00,-0.213256
2023-09-13 14:42:00,-0.219802
2023-09-13 14:43:00,-0.215002
2023-09-13 14:44:00,-0.221644
2023-09-13 14:45:00,-0.23262
2023-09-13 14:46:00,-0.223176
2023-09-13 14:47:00,-0.172564
2023-09-13 14:48:00,-0.19359
2023-09-13 14:49:00,-0.218348
2023-09-13 14:50:00,-0.201978
2023-09-13 14:51:00,-0.178922
2023-09-13 14:52:00,-0.178472
2023-09-13 14:53:00,-0.17746
2023-09-13 14:54:00,-0.149104
2023-09-13 14:55:00,-0.157564
2023-09-13 14:56:00,-0.159906
2023-09-13 14:57:00,-0.124652
2023-09-13 14:58:00,-0.160948
2023-09-13 14:59:00,-0.180072
2023-09-13 15:00:00,-0.1698
2023-09-13 15:01:00,-0.187504
2023-09-13 15:02:00,-0.195518
2023-09-13 15:03:00,-0.196642
2023-09-13 15:04:00,-0.186968
2023-09-13 15:05:00,-0.206104
2023-09-13 15:06:00,-0.195128
2023-09-13 15:07:00,-0.180864
2023-09-13 15:08:00,-0.176906
2023-09-13 15:09:00,-0.175068
2023-09-13 15:10:00,-0.175356
2023-09-13 15:11:00,-0.16541
2023-09-13 15:12:00,-0.151538
2023-09-13 15:13:00,-0.160236
2023-09-13 15:14:00,-0.1718
2023-09-13 15:15:00,-0.178968
2023-09-13 15:16:00,-0.169388
2023-09-13 15:17:00,-0.156562
2023-09-13 15:18:00,-0.161094
2023-09-13 15:19:00,-0.166864
2023-09-13 15:20:00,-0.175772
2023-09-13 15:21:00,-0.162598
2023-09-13 15:22:00,-0.16782
2023-09-13 15:23:00,-0.166662
2023-09-13 15:24:00,-0.19009
2023-09-13 15:25:00,-0.182958
2023-09-13 15:26:00,-0.194778
2023-09-13 15:27:00,-0.186716
2023-09-13 15:28:00,-0.189918
2023-09-13 15:29:00,-0.179638
2023-09-13 15:30:00,-0.198974
2023-09-13 15:31:00,-0.167624
2023-09-13 15:32:00,-0.159608
2023-09-13 15:33:00,-0.167254
2023-09-13 15:34:00,-0.168572
2023-09-13 15:36:00,-0.150472
2023-09-13 15:37:00,-0.160842
2023-09-13 15:38:00,-0.164348
2023-09-13 15:39:00,-0.1633
2023-09-13 15:40:00,-0.158754
2023-09-13 15:41:00,-0.158558
2023-09-13 15:42:00,-0.154138
2023-09-13 15:43:00,-0.136432
2023-09-13 15:44:00,-0.153288
2023-09-13 15:45:00,-0.16354
2023-09-13 15:46:00,-0.175038
2023-09-13 15:47:00,-0.15544
2023-09-13 15:48:00,-0.180772
2023-09-13 15:49:00,-0.175992
2023-09-13 15:50:00,-0.192802
2023-09-13 15:51:00,-0.178488
2023-09-13 15:52:00,-0.17782
2023-09-13 15:53:00,-0.16559
2023-09-13 15:54:00,-0.162314
2023-09-13 15:55:00,-0.130832
2023-09-13 15:56:00,-0.138488
2023-09-13 15:57:00,-0.162908
2023-09-13 15:58:00,-0.157684
2023-09-13 15:59:00,-0.158534
2023-09-13 16:00:00,-0.161112
2023-09-13 16:01:00,-0.162592
2023-09-13 16:02:00,-0.194172
2023-09-13 16:03:00,-0.179622
2023-09-13 16:04:00,-0.148084
2023-09-13 16:05:00,-0.119158
2023-09-13 16:06:00,-0.142482
2023-09-13 16:07:00,-0.115908
2023-09-13 16:08:00,-0.15906
2023-09-13 16:09:00,-0.18292
2023-09-13 16:10:00,-0.183598
2023-09-13 16:11:00,-0.161436
2023-09-13 16:12:00,-0.184376
2023-09-13 16:13:00,-0.199982
2023-09-13 16:14:00,-0.17392
2023-09-13 16:15:00,-0.177036
2023-09-13 16:16:00,-0.173242
2023-09-13 16:17:00,-0.18081
2023-09-13 16:18:00,-0.176922
2023-09-13 16:19:00,-0.182778
2023-09-13 16:20:00,-0.177554
2023-09-13 16:21:00,-0.173468
2023-09-13 16:22:00,-0.171052
2023-09-13 16:23:00,-0.198404
2023-09-13 16:24:00,-0.226376
2023-09-13 16:25:00,-0.224952
2023-09-13 16:26:00,-0.204504
2023-09-13 16:27:00,-0.20029
2023-09-13 16:28:00,-0.203532
2023-09-13 16:29:00,-0.211696
2023-09-13 16:30:00,-0.181216
2023-09-13 16:31:00,-0.175234
2023-09-13 16:32:00,-0.190378
2023-09-13 16:33:00,-0.168358
2023-09-13 16:34:00,-0.130488
2023-09-13 16:35:00,-0.15005
2023-09-13 16:36:00,-0.146432
2023-09-13 16:37:00,-0.168526
2023-09-13 16:38:00,-0.182938
2023-09-13 16:39:00,-0.18066
2023-09-13 16:40:00,-0.173806
2023-09-13 16:41:00,-0.17222
2023-09-13 16:42:00,-0.15518
2023-09-13 16:43:00,-0.161574
2023-09-13 16:44:00,-0.187404
2023-09-13 16:45:00,-0.1795
2023-09-13 16:46:00,-0.181308
2023-09-13 16:47:00,-0.154314
2023-09-13 16:48:00,-0.135292
2023-09-13 16:49:00,-0.13998
2023-09-13 16:50:00,-0.133188
2023-09-13 16:51:00,-0.129384
2023-09-13 16:52:00,-0.121974
2023-09-13 16:53:00,-0.113306
2023-09-13 16:54:00,-0.123118
2023-09-13 16:55:00,-0.123964
2023-09-13 16:56:00,-0.142538
2023-09-13 16:57:00,-0.153428
2023-09-13 16:58:00,-0.140426
2023-09-13 16:59:00,-0.132414
2023-09-13 17:00:00,-0.119174
2023-09-13 17:01:00,-0.155386
2023-09-13 17:02:00,-0.148558
2023-09-13 17:03:00,-0.153418
2023-09-13 17:04:00,-0.15404
2023-09-13 17:05:00,-0.145304
2023-09-13 17:06:00,-0.159416
2023-09-13 17:07:00,-0.149754
2023-09-13 17:08:00,-0.149684
2023-09-13 17:09:00,-0.143206
2023-09-13 17:10:00,-0.147184
2023-09-13 17:11:00,-0.177154
2023-09-13 17:12:00,-0.139416
2023-09-13 17:13:00,-0.119842
2023-09-13 17:14:00,-0.12397
2023-09-13 17:15:00,-0.123802
2023-09-13 17:17:00,-0.160968
2023-09-13 17:18:00,-0.158128
2023-09-13 17:19:00,-0.126962
2023-09-13 17:20:00,-0.121956
2023-09-13 17:21:00,-0.136854
2023-09-13 17:22:00,-0.163232
2023-09-13 17:23:00,-0.162848
2023-09-13 17:24:00,-0.157002
2023-09-13 17:25:00,-0.16933
2023-09-13 17:26:00,-0.161128
2023-09-13 17:27:00,-0.1671
2023-09-13 17:28:00,-0.157846
2023-09-13 17:29:00,-0.175536
2023-09-13 17:30:00,-0.180238
2023-09-13 17:31:00,-0.204254
2023-09-13 17:32:00,-0.208308
2023-09-13 17:33:00,-0.200026
2023-09-13 17:34:00,-0.184538
2023-09-13 17:35:00,-0.2047
2023-09-13 17:36:00,-0.193162
2023-09-13 17:37:00,-0.191604
2023-09-13 17:38:00,-0.196568
2023-09-13 17:39:00,-0.195862
2023-09-13 17:40:00,-0.194332
2023-09-13 17:41:00,-0.211024
2023-09-13 17:42:00,-0.190644
2023-09-13 17:43:00,-0.191048
2023-09-13 17:44:00,-0.183558
2023-09-13 17:45:00,-0.168426
2023-09-13 17:46:00,-0.177986
2023-09-13 17:47:00,-0.146724
2023-09-13 17:48:00,-0.164818
2023-09-13 17:49:00,-0.16347
2023-09-13 17:50:00,-0.168864
2023-09-13 17:51:00,-0.18221
2023-09-13 17:52:00,-0.149336
2023-09-13 17:53:00,-0.170156
2023-09-13 17:54:00,-0.148384
2023-09-13 17:55:00,-0.149416
2023-09-13 17:56:00,-0.169676
2023-09-13 17:57:00,-0.172492
2023-09-13 17:58:00,-0.16341
2023-09-13 17:59:00,-0.174436
2023-09-13 18:00:00,-0.190496
2023-09-13 18:01:00,-0.16946
2023-09-13 18:02:00,-0.18954
2023-09-13 18:03:00,-0.180248
2023-09-13 18:04:00,-0.199872
2023-09-13 18:05:00,-0.199592
2023-09-13 18:06:00,-0.174214
2023-09-13 18:07:00,-0.17146
2023-09-13 18:08:00,-0.193878
2023-09-13 18:09:00,-0.19139
2023-09-13 18:10:00,-0.189036
2023-09-13 18:11:00,-0.175058
2023-09-13 18:12:00,-0.191468
2023-09-13 18:13:00,-0.200182
2023-09-13 18:14:00,-0.20329
2023-09-13 18:15:00,-0.213374
2023-09-13 18:16:00,-0.192134
2023-09-13 18:17:00,-0.17297
2023-09-13 18:18:00,-0.172486
2023-09-13 18:19:00,-0.192442
2023-09-13 18:20:00,-0.190594
2023-09-13 18:21:00,-0.206296
2023-09-13 18:22:00,-0.206446
2023-09-13 18:23:00,-0.225696
2023-09-13 18:24:00,-0.20414
2023-09-13 18:25:00,-0.208008
2023-09-13 18:26:00,-0.185226
2023-09-13 18:27:00,-0.17476
2023-09-13 18:28:00,-0.183636
2023-09-13 18:29:00,-0.181048
2023-09-13 18:30:00,-0.19408
2023-09-13 18:31:00,-0.202394
2023-09-13 18:32:00,-0.215296
2023-09-13 18:33:00,-0.179884
2023-09-13 18:34:00,-0.215738
2023-09-13 18:35:00,-0.192244
2023-09-13 18:36:00,-0.187676
2023-09-13 18:37:00,-0.198548
2023-09-13 18:38:00,-0.193366
2023-09-13 18:39:00,-0.198476
2023-09-13 18:40:00,-0.184304
2023-09-13 18:41:00,-0.162332
2023-09-13 18:42:00,-0.196188
2023-09-13 18:43:00,-0.2313
2023-09-13 18:44:00,-0.21541
2023-09-13 18:45:00,-0.213128
2023-09-13 18:46:00,-0.189738
2023-09-13 18:47:00,-0.224034
2023-09-13 18:48:00,-0.204224
2023-09-13 18:49:00,-0.194872
2023-09-13 18:50:00,-0.196744
2023-09-13 18:51:00,-0.218754
2023-09-13 18:52:00,-0.202864
2023-09-13 18:53:00,-0.215548
2023-09-13 18:54:00,-0.250536
2023-09-13 18:55:00,-0.250554
2023-09-13 18:56:00,-0.236334
2023-09-13 18:58:00,-0.25406
2023-09-13 18:59:00,-0.256946
2023-09-13 19:00:00,-0.233762
2023-09-13 19:01:00,-0.224362
2023-09-13 19:02:00,-0.230282
2023-09-13 19:03:00,-0.23974
2023-09-13 19:04:00,-0.2343
2023-09-13 19:05:00,-0.234306
2023-09-13 19:06:00,-0.259112
2023-09-13 19:07:00,-0.23348
2023-09-13 19:08:00,-0.246842
2023-09-13 19:09:00,-0.262562
2023-09-13 19:10:00,-0.273732
2023-09-13 19:11:00,-0.253
2023-09-13 19:12:00,-0.24162
2023-09-13 19:13:00,-0.238078
2023-09-13 19:14:00,-0.238742
2023-09-13 19:15:00,-0.216746
2023-09-13 19:16:00,-0.229048
2023-09-13 19:17:00,-0.23258
2023-09-13 19:18:00,-0.22945
2023-09-13 19:19:00,-0.248066
2023-09-13 19:20:00,-0.282146
2023-09-13 19:21:00,-0.258536
2023-09-13 19:22:00,-0.236488
2023-09-13 19:23:00,-0.24351
2023-09-13 19:24:00,-0.230994
2023-09-13 19:25:00,-0.227614
2023-09-13 19:26:00,-0.242342
2023-09-13 19:27:00,-0.249906
2023-09-13 19:28:00,-0.236624
2023-09-13 19:29:00,-0.237762
2023-09-13 19:30:00,-0.252194
2023-09-13 19:31:00,-0.244188
2023-09-13 19:32:00,-0.244252
2023-09-13 19:33:00,-0.218104
2023-09-13 19:34:00,-0.245402
2023-09-13 19:35:00,-0.235088
2023-09-13 19:36:00,-0.235438
2023-09-13 19:37:00,-0.230864
2023-09-13 19:38:00,-0.2344
2023-09-13 19:39:00,-0.212488
2023-09-13 19:40:00,-0.244136
2023-09-13 19:41:00,-0.274196
2023-09-13 19:42:00,-0.22892
2023-09-13 19:43:00,-0.250822
2023-09-13 19:44:00,-0.271884
2023-09-13 19:45:00,-0.26519
2023-09-13 19:46:00,-0.246754
2023-09-13 19:47:00,-0.240724
2023-09-13 19:48:00,-0.272544
2023-09-13 19:49:00,-0.247716
2023-09-13 19:50:00,-0.255426
2023-09-13 19:51:00,-0.235196
2023-09-13 19:52:00,-0.24241
2023-09-13 19:53:00,-0.273382
2023-09-13 19:54:00,-0.252078
2023-09-13 19:55:00,-0.261262
2023-09-13 19:56:00,-0.284208
2023-09-13 19:57:00,-0.30884
2023-09-13 19:58:00,-0.28193
2023-09-13 19:59:00,-0.275842
2023-09-13 20:00:00,-0.231434
2023-09-13 20:01:00,-0.26351
2023-09-13 20:02:00,-0.27074
2023-09-13 20:03:00,-0.273422
2023-09-13 20:04:00,-0.248388
2023-09-13 20:05:00,-0.236138
2023-09-13 20:06:00,-0.235678
2023-09-13 20:07:00,-0.238604
2023-09-13 20:08:00,-0.209002
2023-09-13 20:09:00,-0.231086
2023-09-13 20:10:00,-0.202984
2023-09-13 20:11:00,-0.216936
2023-09-13 20:12:00,-0.20215
2023-09-13 20:13:00,-0.208064
2023-09-13 20:14:00,-0.205258
2023-09-13 20:15:00,-0.206678
2023-09-13 20:16:00,-0.208042
2023-09-13 20:17:00,-0.185094
2023-09-13 20:18:00,-0.19851
2023-09-13 20:19:00,-0.242032
2023-09-13 20:20:00,-0.235112
2023-09-13 20:21:00,-0.220646
2023-09-13 20:22:00,-0.232224
2023-09-13 20:23:00,-0.26146
2023-09-13 20:24:00,-0.208288
2023-09-13 20:25:00,-0.229246
2023-09-13 20:26:00,-0.218548
2023-09-13 20:27:00,-0.222066
2023-09-13 20:28:00,-0.228372
2023-09-13 20:29:00,-0.204168
2023-09-13 20:30:00,-0.19085
2023-09-13 20:31:00,-0.186064
2023-09-13 20:32:00,-0.211286
2023-09-13 20:33:00,-0.187108
2023-09-13 20:34:00,-0.19488
2023-09-13 20:35:00,-0.234822
2023-09-13 20:36:00,-0.243556
2023-09-13 20:37:00,-0.230524
2023-09-13 20:39:00,-0.212262
2023-09-13 20:40:00,-0.24309
2023-09-13 20:41:00,-0.244078
2023-09-13 20:42:00,-0.270046
2023-09-13 20:43:00,-0.260788
2023-09-13 20:44:00,-0.231944
2023-09-13 20:45:00,-0.246074
2023-09-13 20:46:00,-0.241766
2023-09-13 20:47:00,-0.220806
2023-09-13 20:48:00,-0.22204
2023-09-13 20:49:00,-0.230804
2023-09-13 20:50:00,-0.239062
2023-09-13 20:51:00,-0.248378
2023-09-13 20:52:00,-0.262558
2023-09-13 20:53:00,-0.269232
2023-09-13 20:54:00,-0.238982
2023-09-13 20:55:00,-0.269142
2023-09-13 20:56:00,-0.23606
2023-09-13 20:57:00,-0.22797
2023-09-13 20:58:00,-0.249518
2023-09-13 20:59:00,-0.24287
2023-09-13 21:00:00,-0.237122
2023-09-13 21:01:00,-0.254928
2023-09-13 21:02:00,-0.2516
2023-09-13 21:03:00,-0.23613
2023-09-13 21:04:00,-0.237936
2023-09-13 21:05:00,-0.251866
2023-09-13 21:06:00,-0.24367
2023-09-13 21:07:00,-0.242308
2023-09-13 21:08:00,-0.236774
2023-09-13 21:09:00,-0.229314
2023-09-13 21:10:00,-0.239234
2023-09-13 21:11:00,-0.223298
2023-09-13 21:12:00,-0.230878
2023-09-13 21:13:00,-0.215728
2023-09-13 21:14:00,-0.230738
2023-09-13 21:15:00,-0.261496
2023-09-13 21:16:00,-0.256686
2023-09-13 21:17:00,-0.231394
2023-09-13 21:18:00,-0.254222
2023-09-13 21:19:00,-0.24182
2023-09-13 21:20:00,-0.22017
2023-09-13 21:21:00,-0.253206
2023-09-13 21:22:00,-0.25484
2023-09-13 21:23:00,-0.266728
2023-09-13 21:24:00,-0.272894
2023-09-13 21:25:00,-0.274458
2023-09-13 21:26:00,-0.293302
2023-09-13 21:27:00,-0.282162
2023-09-13 21:28:00,-0.26247
2023-09-13 21:29:00,-0.300666
2023-09-13 21:30:00,-0.278986
2023-09-13 21:31:00,-0.262916
2023-09-13 21:32:00,-0.264112
2023-09-13 21:33:00,-0.256696
2023-09-13 21:34:00,-0.245464
2023-09-13 21:35:00,-0.266308
2023-09-13 21:36:00,-0.273982
2023-09-13 21:37:00,-0.264868
2023-09-13 21:38:00,-0.279632
2023-09-13 21:39:00,-0.281088
2023-09-13 21:40:00,-0.258544
2023-09-13 21:41:00,-0.262022
2023-09-13 21:42:00,-0.27254
2023-09-13 21:43:00,-0.270188
2023-09-13 21:44:00,-0.26757
2023-09-13 21:45:00,-0.272064
2023-09-13 21:46:00,-0.266332
2023-09-13 21:47:00,-0.276186
2023-09-13 21:48:00,-0.26456
2023-09-13 21:49:00,-0.263322
2023-09-13 21:50:00,-0.253642
2023-09-13 21:51:00,-0.25912
2023-09-13 21:52:00,-0.287744
2023-09-13 21:53:00,-0.289388
2023-09-13 21:54:00,-0.289842
2023-09-13 21:55:00,-0.272814
2023-09-13 21:56:00,-0.292132
2023-09-13 21:57:00,-0.291572
2023-09-13 21:58:00,-0.291336
2023-09-13 21:59:00,-0.285746
2023-09-13 22:00:00,-0.239956
2023-09-13 22:01:00,-0.25153
2023-09-13 22:02:00,-0.250012
2023-09-13 22:03:00,-0.258312
2023-09-13 22:04:00,-0.299358
2023-09-13 22:05:00,-0.280358
2023-09-13 22:06:00,-0.266536
2023-09-13 22:07:00,-0.280008
2023-09-13 22:08:00,-0.294244
2023-09-13 22:09:00,-0.315702
2023-09-13 22:10:00,-0.294808
2023-09-13 22:11:00,-0.252138
2023-09-13 22:12:00,-0.264966
2023-09-13 22:13:00,-0.286396
2023-09-13 22:14:00,-0.279602
2023-09-13 22:15:00,-0.298466
2023-09-13 22:16:00,-0.294766
